...................
----------------------------------------------------------------------
Ran 19 tests in 0.019s

OK
Name             Stmts   Miss Branch BrPart  Cover   Missing
------------------------------------------------------------
Collatz.py          39      0     14      0   100%
TestCollatz.py      81      0      0      0   100%
------------------------------------------------------------
TOTAL              120      0     14      0   100%

